[
  {
    "name": "Наушники Sennheiser HD 458 BT",
    "price": 20,
    "productCode": 43423423,
    "color": "black",
    "productImg": "https://content1.rozetka.com.ua/goods/images/big/152051793.jpg",
    "isFavourite": false,
    "id": 1
  },
  {
    "name": "Наушники LG TONE Free FN6 True Wireless",
    "price": 15,
    "productCode": 34432423,
    "color": "black",
    "productImg": "https://content.rozetka.com.ua/goods/images/big/34032372.jpg",
    "isFavourite": false,
    "id": 2
  },
  {
    "name": "Наушники Sennheiser CX TRUE WIRELESS",
    "price": 17,
    "productCode": 3436223,
    "color": "black",
    "productImg": "https://content.rozetka.com.ua/goods/images/big/193559116.jpg",
    "isFavourite": false,
    "id": 3
  },
  {
    "name": "Наушники Realme Buds Air 2",
    "price": 14,
    "productCode": 4234235,
    "color": "grey",
    "productImg": "https://content.rozetka.com.ua/goods/images/big_tile/233786467.jpg",
    "isFavourite": false,
    "id": 4
  },
  {
    "name":"Наушники BeatBox PODS AIR 2 Wireless Charging",
    "price": 23 ,
    "productCode": 434232,
    "color": "black",
    "productImg": "https://content1.rozetka.com.ua/goods/images/big/182728728.jpg",
    "isFavourite": false,
    "id": 5
  },
  {
    "name": "Наушники BeatBox PODS PRO 1 Wireless Charging",
    "price": 13,
    "productCode": 363453,
    "color": "white",
    "productImg": "https://content2.rozetka.com.ua/goods/images/big/182697450.jpg",
    "isFavourite": false,
    "id": 6
  },
  {
    "name": "Наушники LG TONE Free FN4 True Wireless",
    "price": 29,
    "productCode": 323234,
    "color": "black",
    "productImg": "https://content1.rozetka.com.ua/goods/images/big/148679008.jpg",
    "isFavourite": false,
    "id": 7
  },
  {
    "name": "Наушники LG TONE Free FN7",
    "price": 26,
    "productCode": 4234239,
    "color": "white",
    "productImg": "https://content.rozetka.com.ua/goods/images/big_tile/228363689.jpg",
    "isFavourite": false,
    "id": 8
  },
  {
    "name": "Наушники Realme Buds Air 3",
    "price": 33,
    "productCode": 4234232,
    "color": "black",
    "productImg": "https://content2.rozetka.com.ua/goods/images/big_tile/46847170.jpg",
    "isFavourite": false,
    "id": 9
  },
  {
    "name": "Наушники Sennheiser CX Plus True Wireless",
    "price": 25,
    "productCode": 323423,
    "color": "white",
    "productImg": "https://content2.rozetka.com.ua/goods/images/big_tile/228363718.jpg",
    "isFavourite": false,
    "id": 10
  }
]


